39 0.771354166667 0.398148148148 0.0239583333333 0.0592592592593
39 0.61875 0.438888888889 0.0125 0.0296296296296
39 0.5953125 0.446296296296 0.0114583333333 0.0222222222222
39 0.566666666667 0.444444444444 0.0125 0.0222222222222
