39 0.816666666667 0.375925925926 0.03125 0.0666666666667
39 0.625520833333 0.42962962963 0.0135416666667 0.0333333333333
39 0.5984375 0.437962962963 0.0114583333333 0.0277777777778
39 0.5703125 0.437037037037 0.009375 0.0222222222222
