39 0.918229166667 0.350925925926 0.040625 0.0907407407407
39 0.636979166667 0.431481481481 0.015625 0.0296296296296
39 0.605208333333 0.440740740741 0.0145833333333 0.0296296296296
39 0.572916666667 0.439814814815 0.0145833333333 0.0277777777778
