39 0.9828125 0.324074074074 0.0322916666667 0.103703703704
39 0.643229166667 0.426851851852 0.0177083333333 0.0351851851852
39 0.608333333333 0.437962962963 0.0166666666667 0.0277777777778
39 0.574479166667 0.437037037037 0.0135416666667 0.0222222222222
