39 0.7421875 0.405555555556 0.0260416666667 0.0518518518519
39 0.613541666667 0.441666666667 0.0166666666667 0.0277777777778
39 0.591145833333 0.447222222222 0.0114583333333 0.0240740740741
39 0.565104166667 0.44537037037 0.0135416666667 0.0240740740741
