39 0.979166666667 0.333333333333 0.0395833333333 0.1
39 0.6421875 0.42962962963 0.015625 0.0333333333333
39 0.609375 0.441666666667 0.0104166666667 0.0240740740741
39 0.573958333333 0.441666666667 0.00833333333333 0.0240740740741
