39 0.96875 0.333333333333 0.0354166666667 0.1
39 0.6421875 0.430555555556 0.0135416666667 0.0314814814815
39 0.609375 0.438888888889 0.0145833333333 0.0259259259259
39 0.575 0.438888888889 0.0104166666667 0.0222222222222
