39 0.830208333333 0.375925925926 0.0333333333333 0.0740740740741
39 0.627083333333 0.430555555556 0.0166666666667 0.0314814814815
39 0.601041666667 0.438888888889 0.0145833333333 0.0296296296296
39 0.569270833333 0.435185185185 0.0135416666667 0.0259259259259
